Lab2/fsm-assignments/problem4_link/dump.vcd
$date
	Sun Aug 17 22:18:01 2025
$end
$version
	Icarus Verilog
$end
$timescale
	1ps
$end
$scope module tb_link_top $end
$var wire 1 ! req $end
$var wire 8 " last_byte [7:0] $end
$var wire 1 # done $end
$var wire 8 $ data [7:0] $end
$var wire 1 % ack $end
$var reg 1 & clk $end
$var reg 1 ' rst $end
$scope module dut $end
$var wire 1 & clk $end
$var wire 1 ' rst $end
$var wire 1 ! req $end
$var wire 8 ( last_byte [7:0] $end
$var wire 1 # done $end
$var wire 8 ) data [7:0] $end
$var wire 1 % ack $end
$scope module u_master $end
$var wire 1 & clk $end
$var wire 8 * data [7:0] $end
$var wire 1 # done $end
$var wire 1 ! req $end
$var wire 1 ' rst $end
$var wire 8 + rom_d [7:0] $end
$var wire 1 % ack $end
$var parameter 3 , S_ASSERT_REQ $end
$var parameter 3 - S_DONE $end
$var parameter 3 . S_DROP_REQ $end
$var parameter 3 / S_IDLE $end
$var parameter 3 0 S_LOAD $end
$var parameter 3 1 S_NEXT $end
$var parameter 3 2 S_WAIT_ACK_H $end
$var parameter 3 3 S_WAIT_ACK_L $end
$var reg 8 4 data_r [7:0] $end
$var reg 1 5 done_r $end
$var reg 2 6 idx [1:0] $end
$var reg 3 7 next_state [2:0] $end
$var reg 1 8 req_r $end
$var reg 3 9 state [2:0] $end
$upscope $end
$scope module u_slave $end
$var wire 1 % ack $end
$var wire 1 & clk $end
$var wire 8 : data_in [7:0] $end
$var wire 1 ! req $end
$var wire 1 ' rst $end
$var parameter 2 ; S_ASSERT_ACK $end
$var parameter 2 < S_HOLD_ACK $end
$var parameter 2 = S_WAIT_REQ $end
$var parameter 2 > S_WAIT_RL $end
$var reg 1 ? ack_r $end
$var reg 2 @ hold_cnt [1:0] $end
$var reg 8 A last_byte [7:0] $end
$var reg 2 B next_state [1:0] $end
$var reg 2 C state [1:0] $end
$upscope $end
$upscope $end
$upscope $end
$enddefinitions $end
$comment Show the parameter values. $end
$dumpall
b11 >
b0 =
b10 <
b1 ;
b101 3
b11 2
b110 1
b1 0
b0 /
b100 .
b111 -
b10 ,
$end
#0
$dumpvars
bx C
bx B
bx A
bx @
x?
bx :
bx 9
x8
bx 7
bx 6
x5
bx 4
b101000xx +
bx *
bx )
bx (
1'
0&
x%
bx $
x#
bx "
x!
$end
#5000
b10100000 +
b0 B
b1 7
b0 9
b0 6
b0 $
b0 )
b0 *
b0 :
b0 4
0#
05
0!
08
b0 C
b0 "
b0 (
b0 A
b0 @
0%
0?
1&
#10000
0&
#15000
0'
1&
#20000
0&
#25000
b10 7
b1 9
1&
#30000
0&
#35000
b11 7
b10100000 $
b10100000 )
b10100000 *
b10100000 :
b10100000 4
b10 9
1&
#40000
0&
#45000
b1 B
b11 9
1!
18
1&
#50000
0&
#55000
b10 B
b10100000 "
b10100000 (
b10100000 A
b1 C
1&
#60000
0&
#65000
b100 7
b10 C
b1 @
1%
1?
1&
#70000
0&
#75000
b11 B
b101 7
b10 @
b100 9
1&
#80000
0&
#85000
b0 B
b101 9
0!
08
b11 C
b11 @
1&
#90000
0&
#95000
b0 C
1&
#100000
0&
#105000
b110 7
b0 @
0%
0?
1&
#110000
0&
#115000
b1 7
b110 9
1&
#120000
0&
#125000
b10 7
b10100001 +
b1 9
b1 6
1&
#130000
0&
#135000
b11 7
b10100001 $
b10100001 )
b10100001 *
b10100001 :
b10100001 4
b10 9
1&
#140000
0&
#145000
b1 B
b11 9
1!
18
1&
#150000
0&
#155000
b10 B
b10100001 "
b10100001 (
b10100001 A
b1 C
1&
#160000
0&
#165000
b100 7
b10 C
b1 @
1%
1?
1&
#170000
0&
#175000
b11 B
b101 7
b10 @
b100 9
1&
#180000
0&
#185000
b0 B
b101 9
0!
08
b11 C
b11 @
1&
#190000
0&
#195000
b0 C
1&
#200000
0&
#205000
b110 7
b0 @
0%
0?
1&
#210000
0&
#215000
b1 7
b110 9
1&
#220000
0&
#225000
b10100010 +
b10 7
b1 9
b10 6
1&
#230000
0&
#235000
b11 7
b10100010 $
b10100010 )
b10100010 *
b10100010 :
b10100010 4
b10 9
1&
#240000
0&
#245000
b1 B
b11 9
1!
18
1&
#250000
0&
#255000
b10 B
b10100010 "
b10100010 (
b10100010 A
b1 C
1&
#260000
0&
#265000
b100 7
b10 C
b1 @
1%
1?
1&
#270000
0&
#275000
b11 B
b101 7
b10 @
b100 9
1&
#280000
0&
#285000
b0 B
b101 9
0!
08
b11 C
b11 @
1&
#290000
0&
#295000
b0 C
1&
#300000
0&
#305000
b110 7
b0 @
0%
0?
1&
#310000
0&
#315000
b1 7
b110 9
1&
#320000
0&
#325000
b10100011 +
b10 7
b1 9
b11 6
1&
#330000
0&
#335000
b11 7
b10100011 $
b10100011 )
b10100011 *
b10100011 :
b10100011 4
b10 9
1&
#340000
0&
#345000
b1 B
b11 9
1!
18
1&
#350000
0&
#355000
b10 B
b10100011 "
b10100011 (
b10100011 A
b1 C
1&
#360000
0&
#365000
b100 7
b10 C
b1 @
1%
1?
1&
#370000
0&
#375000
b11 B
b101 7
b10 @
b100 9
1&
#380000
0&
#385000
b0 B
b101 9
0!
08
b11 C
b11 @
1&
#390000
0&
#395000
b0 C
1&
#400000
0&
#405000
b111 7
b0 @
0%
0?
1&
#410000
0&
#415000
b0 7
b111 9
1&
#420000
0&
#425000
b1 7
b0 9
1#
15
1&
#430000
0&
#435000
b10 7
0#
05
b1 9
1&
#440000
0&
#445000
b11 7
b10 9
1&
#450000
0&
#455000
b1 B
1!
18
b11 9
1&
#460000
0&
#465000
b10 B
b1 C
1&
